%YAML 1.1
%TAG !u! tag:unity3d.com,2011:
--- !u!114 &11400000
MonoBehaviour:
  m_ObjectHideFlags: 0
  m_CorrespondingSourceObject: {fileID: 0}
  m_PrefabInstance: {fileID: 0}
  m_PrefabAsset: {fileID: 0}
  m_GameObject: {fileID: 0}
  m_Enabled: 1
  m_EditorHideFlags: 0
  m_Script: {fileID: 11500000, guid: a9ae21991826f445da19bd63e5eaec0e, type: 3}
  m_Name: Purple White Filenia
  m_EditorClassIdentifier: 
  label: Purple White Filenia
  plantPrefab: {fileID: 1487885408219446046, guid: 33987303c3acfae40a2e20877aa3ad10, type: 3}
  tags: 1384
  growingTime: 100
  nitrogen: 8
  potassium: 10
  phosphorus: 6
  minerals: 5
