%YAML 1.1
%TAG !u! tag:unity3d.com,2011:
--- !u!114 &11400000
MonoBehaviour:
  m_ObjectHideFlags: 0
  m_CorrespondingSourceObject: {fileID: 0}
  m_PrefabInstance: {fileID: 0}
  m_PrefabAsset: {fileID: 0}
  m_GameObject: {fileID: 0}
  m_Enabled: 1
  m_EditorHideFlags: 0
  m_Script: {fileID: 11500000, guid: a9ae21991826f445da19bd63e5eaec0e, type: 3}
  m_Name: White Delirium
  m_EditorClassIdentifier: 
  label: White Delirium
  plantPrefab: {fileID: 8316237564621877621, guid: c79612616f2aff94f853fb215a4e5674, type: 3}
  tags: 1344
  growingTime: 100
  nitrogen: 8
  potassium: 10
  phosphorus: 6
  minerals: 5
