%YAML 1.1
%TAG !u! tag:unity3d.com,2011:
--- !u!114 &11400000
MonoBehaviour:
  m_ObjectHideFlags: 0
  m_CorrespondingSourceObject: {fileID: 0}
  m_PrefabInstance: {fileID: 0}
  m_PrefabAsset: {fileID: 0}
  m_GameObject: {fileID: 0}
  m_Enabled: 1
  m_EditorHideFlags: 0
  m_Script: {fileID: 11500000, guid: a9ae21991826f445da19bd63e5eaec0e, type: 3}
  m_Name: Yellow Ficus
  m_EditorClassIdentifier: 
  label: Yellow Ficus
  plantPrefab: {fileID: 1359309289042306014, guid: 846628e45a956084f95f232369e199e8, type: 3}
  tags: 2572
  growingTime: 50
  nitrogen: 4
  potassium: 7
  phosphorus: 3
  minerals: 4
